\relax 
\providecommand\hyper@newdestlabel[2]{}
\citation{yii}
\citation{symfony2}
\@writefile{toc}{\select@language{magyar} \contentsline {section}{\numberline {1}Bevezet\IeC {\'e}s}{4}{section.1}}
\@writefile{toc}{\select@language{magyar} \contentsline {subsection}{\numberline {1.1}C\IeC {\'e}lkit\IeC {\H u}z\IeC {\'e}s}{4}{subsection.1.1}}
\@setckpt{tex/bevezetes}{
\setcounter{page}{5}
\setcounter{equation}{0}
\setcounter{enumi}{0}
\setcounter{enumii}{0}
\setcounter{enumiii}{0}
\setcounter{enumiv}{0}
\setcounter{footnote}{0}
\setcounter{mpfootnote}{0}
\setcounter{part}{0}
\setcounter{section}{1}
\setcounter{subsection}{1}
\setcounter{subsubsection}{0}
\setcounter{paragraph}{0}
\setcounter{subparagraph}{0}
\setcounter{figure}{0}
\setcounter{table}{0}
\setcounter{footnote@add}{0}
\setcounter{footnote@ch}{0}
\setcounter{lstnumber}{1}
\setcounter{ContinuedFloat}{0}
\setcounter{subfigure}{0}
\setcounter{subtable}{0}
\setcounter{Item}{0}
\setcounter{Hfootnote}{0}
\setcounter{bookmark@seq@number}{2}
\setcounter{lstlisting}{0}
\setcounter{section@level}{2}
}
