\relax 
\providecommand\hyper@newdestlabel[2]{}
\citation{wiki}
\citation{MITx}
\citation{udacity}
\citation{numPy}
\citation{deepLearning}
\citation{pythonGIS}
\citation{pytest}
\citation{selenium}
\citation{wiki}
\citation{pypy}
\citation{pypySpeed}
\citation{keretrendszer}
\citation{webAdatbazisJegyzet}
\citation{webAdatbazisJegyzet}
\citation{webAdatbazisJegyzet}
\@writefile{toc}{\select@language{magyar} \contentsline {subsection}{\numberline {2.2}Szoftverk\IeC {\"o}rnyezet \IeC {\'e}s felhaszn\IeC {\'a}lt technol\IeC {\'o}gi\IeC {\'a}k}{17}{subsection.2.2}}
\@writefile{toc}{\select@language{magyar} \contentsline {subsubsection}{\numberline {2.2.1}Szerveroldali programoz\IeC {\'a}s MVC keretrendszerrel}{17}{subsubsection.2.2.1}}
\citation{pythonWiki}
\citation{django}
\citation{hotFrameworks}
\citation{github}
\citation{stack}
\citation{hotFrameworks}
\citation{hotFrameworks}
\citation{pythonFw17}
\citation{pythonFw17}
\citation{wikiDjango}
\citation{foundation}
\@writefile{toc}{\select@language{magyar} \contentsline {subsubsection}{\numberline {2.2.2}Webes keretrendszerek Python-hoz}{18}{subsubsection.2.2.2}}
\@writefile{lot}{\select@language{magyar} \contentsline {table}{\numberline {2.}{\ignorespaces Legn\IeC {\'e}pszer\IeC {\H u}bb Python nyelv\IeC {\H u} webes framework-\IeC {\"o}k \cite  {hotFrameworks} alapj\IeC {\'a}n\relax }}{18}{table.caption.26}}
\newlabel{tab:pythonFrameworks}{{2}{18}{Legnépszerűbb Python nyelvű webes framework-ök \cite {hotFrameworks} alapján\relax }{table.caption.26}{}}
\citation{DjangoProject}
\citation{wikiDjango}
\citation{djangoQuerySet}
\citation{djangoTemplates}
\citation{wikiDjango}
\citation{pythonVersion}
\citation{pythonVersion}
\@writefile{toc}{\select@language{magyar} \contentsline {subsubsection}{\numberline {2.2.3}A Django}{19}{subsubsection.2.2.3}}
\citation{sqlite}
\@writefile{lot}{\select@language{magyar} \contentsline {table}{\numberline {3.}{\ignorespaces Django \IeC {\textendash } Python verzi\IeC {\'o} kompatibilit\IeC {\'a}si t\IeC {\'a}bl\IeC {\'a}zat \cite  {pythonVersion}\relax }}{20}{table.caption.28}}
\newlabel{tab:pythonVersion}{{3}{20}{Django – Python verzió kompatibilitási táblázat \cite {pythonVersion}\relax }{table.caption.28}{}}
\@writefile{lof}{\select@language{magyar} \contentsline {figure}{\numberline {14.}{\ignorespaces Django default k\IeC {\"o}nyvt\IeC {\'a}rszerkezet\relax }}{20}{figure.caption.30}}
\newlabel{fig:django-tree}{{14}{20}{Django default könyvtárszerkezet\relax }{figure.caption.30}{}}
\citation{djangoModels}
\citation{djangoQuerySet}
\citation{djangoViews}
\citation{djangoQuerySet}
\citation{djangoTemplates}
\citation{pip}
\citation{djangoWidget}
\citation{djangoRecaptcha}
\citation{googleRecaptcha}
\citation{restfulWebServices}
\citation{djangoREST}
\@writefile{toc}{\select@language{magyar} \contentsline {subsubsection}{\numberline {2.2.4}Felhaszn\IeC {\'a}lt szerveroldali f\IeC {\"u}ggv\IeC {\'e}nyk\IeC {\"o}nyvt\IeC {\'a}rak}{26}{subsubsection.2.2.4}}
\citation{websockets}
\citation{djangoChannels}
\citation{pillow}
\citation{picklefield}
\citation{bootstrap}
\citation{glyphicons}
\@writefile{toc}{\select@language{magyar} \contentsline {subsubsection}{\numberline {2.2.5}Kliensoldali programoz\IeC {\'a}s, felhaszn\IeC {\'a}lt f\IeC {\"u}ggv\IeC {\'e}nyk\IeC {\"o}nyvt\IeC {\'a}rak}{28}{subsubsection.2.2.5}}
\citation{datepicker}
\citation{googleMapsApi}
\citation{chartjs}
\citation{jquery}
\citation{papaParse}
\@setckpt{tex/elmelet-sw}{
\setcounter{page}{33}
\setcounter{equation}{0}
\setcounter{enumi}{0}
\setcounter{enumii}{0}
\setcounter{enumiii}{0}
\setcounter{enumiv}{0}
\setcounter{footnote}{0}
\setcounter{mpfootnote}{0}
\setcounter{part}{0}
\setcounter{section}{2}
\setcounter{subsection}{2}
\setcounter{subsubsection}{5}
\setcounter{paragraph}{0}
\setcounter{subparagraph}{0}
\setcounter{figure}{14}
\setcounter{table}{3}
\setcounter{footnote@add}{0}
\setcounter{footnote@ch}{0}
\setcounter{lstnumber}{16}
\setcounter{ContinuedFloat}{0}
\setcounter{subfigure}{0}
\setcounter{subtable}{0}
\setcounter{Item}{0}
\setcounter{Hfootnote}{0}
\setcounter{bookmark@seq@number}{15}
\setcounter{lstlisting}{0}
\setcounter{section@level}{3}
}
