\relax 
\providecommand\hyper@newdestlabel[2]{}
\citation{omsz140eves}
\citation{metAdatbazisTortenete}
\citation{metAdatbazisTortenete}
\citation{metAdatbazisTortenete}
\citation{MAWOS}
\citation{OMSZHagyomanyosModszerek}
\citation{ELTEMuszer}
\citation{WMOGuideObs}
\citation{ELTEMuszer}
\citation{MorvaiK}
\@writefile{toc}{\select@language{magyar} \contentsline {section}{\numberline {2}A dolgozat elm\IeC {\'e}leti h\IeC {\'a}ttere}{5}{section.2}}
\@writefile{toc}{\select@language{magyar} \contentsline {subsection}{\numberline {2.1}Meteorol\IeC {\'o}giai h\IeC {\'a}tt\IeC {\'e}r}{5}{subsection.2.1}}
\@writefile{lof}{\select@language{magyar} \contentsline {figure}{\numberline {1.}{\ignorespaces OMSZ meteorol\IeC {\'o}giai \IeC {\'e}szlel\IeC {\H o}fel\IeC {\"u}let fejl\IeC {\H o}d\IeC {\'e}se, \cite  {metAdatbazisTortenete} alapj\IeC {\'a}n\relax }}{5}{figure.caption.2}}
\providecommand*\caption@xref[2]{\@setref\relax\@undefined{#1}}
\newlabel{fig:urlapok}{{1}{5}{OMSZ meteorológiai észlelőfelület fejlődése, \cite {metAdatbazisTortenete} alapján\relax }{figure.caption.2}{}}
\@writefile{toc}{\select@language{magyar} \contentsline {subsubsection}{\numberline {2.1.1}Meteorol\IeC {\'o}giai m\IeC {\'e}r\IeC {\'e}sek}{5}{subsubsection.2.1.1}}
\citation{ELTEMuszer}
\citation{foldfelsziniEloiras}
\citation{MAWOS}
\citation{MAWOS}
\citation{MAWOS}
\citation{urbanTemperature}
\citation{urbanTemperature}
\citation{urbanTemperature}
\citation{metInfo}
\citation{omszSynop}
\citation{omszMetar}
\citation{ELTEAlapismeretek}
\citation{ogimetMetar}
\@writefile{lof}{\select@language{magyar} \contentsline {figure}{\numberline {2.}{\ignorespaces Egy rep\IeC {\"u}l\IeC {\H o}t\IeC {\'e}ri m\IeC {\H u}szerkert elvi fel\IeC {\'e}p\IeC {\'\i }t\IeC {\'e}se \cite  {MAWOS}\relax }}{6}{figure.caption.3}}
\newlabel{fig:muszerkert}{{2}{6}{Egy repülőtéri műszerkert elvi felépítése \cite {MAWOS}\relax }{figure.caption.3}{}}
\@writefile{lof}{\select@language{magyar} \contentsline {figure}{\numberline {3.}{\ignorespaces P\IeC {\'e}lda v\IeC {\'a}rosi m\IeC {\'e}r\IeC {\H o}h\IeC {\'a}l\IeC {\'o}zatra (saj\IeC {\'a}t \IeC {\'a}bra, publik\IeC {\'a}lva: \cite  {urbanTemperature})\relax }}{6}{figure.caption.4}}
\newlabel{fig:urbanmap}{{3}{6}{Példa városi mérőhálózatra (saját ábra, publikálva: \cite {urbanTemperature})\relax }{figure.caption.4}{}}
\citation{omszMetar}
\citation{ogimetSynop}
\citation{foldfelsziniEloiras}
\@writefile{toc}{\select@language{magyar} \contentsline {subsubsection}{\numberline {2.1.2}Meteorol\IeC {\'o}giai t\IeC {\'a}viratok}{7}{subsubsection.2.1.2}}
\citation{ELTEMuszer}
\citation{ELTEAlapismeretek}
\citation{zivatarHu}
\citation{zivatarHu}
\citation{ELTEMuszer}
\citation{ozone}
\citation{fluxMonitoring}
\citation{ELTEMuszer}
\citation{ELTEMuszer}
\@writefile{toc}{\select@language{magyar} \contentsline {subsubsection}{\numberline {2.1.3}M\IeC {\'e}rt meteorol\IeC {\'o}giai \IeC {\'a}llapotjelz\IeC {\H o}k}{8}{subsubsection.2.1.3}}
\@writefile{lof}{\select@language{magyar} \contentsline {figure}{\numberline {4.}{\ignorespaces Hagyom\IeC {\'a}nyos Stevenson-f\IeC {\'e}le h\IeC {\H o}m\IeC {\'e}r\IeC {\H o}h\IeC {\'a}z \IeC {\'e}s t\IeC {\'a}ny\IeC {\'e}ros \IeC {\'a}rny\IeC {\'e}kol\IeC {\'o} (saj\IeC {\'a}t fot\IeC {\'o}k, publik\IeC {\'a}lva: \cite  {zivatarHu})\relax }}{8}{figure.caption.6}}
\newlabel{fig:arnyekolok}{{4}{8}{Hagyományos Stevenson-féle hőmérőház és tányéros árnyékoló (saját fotók, publikálva: \cite {zivatarHu})\relax }{figure.caption.6}{}}
\citation{zivatarHu}
\citation{zivatarHu}
\citation{ELTEMuszer}
\citation{foldfelsziniEloiras}
\citation{ELTEMuszer}
\citation{ELTEAlapismeretek}
\citation{foldfelsziniEloiras}
\citation{ELTEMuszer}
\@writefile{lof}{\select@language{magyar} \contentsline {figure}{\numberline {5.}{\ignorespaces Vaisala r\IeC {\'a}di\IeC {\'o}szonda, antenna \IeC {\'e}s szenzor (saj\IeC {\'a}t fot\IeC {\'o}k, publik\IeC {\'a}lva: \cite  {zivatarHu})\relax }}{9}{figure.caption.7}}
\newlabel{fig:szondak}{{5}{9}{Vaisala rádiószonda, antenna és szenzor (saját fotók, publikálva: \cite {zivatarHu})\relax }{figure.caption.7}{}}
\citation{foldfelsziniEloiras}
\citation{windDirections}
\citation{windDirections}
\citation{omszSynop}
\citation{zivatarHu}
\citation{zivatarHu}
\citation{ELTEMuszer}
\citation{foldfelsziniEloiras}
\@writefile{lof}{\select@language{magyar} \contentsline {figure}{\numberline {6.}{\ignorespaces Sz\IeC {\'e}lir\IeC {\'a}nyok: f\IeC {\H o}ir\IeC {\'a}nyok, mell\IeC {\'e}kir\IeC {\'a}nyok \IeC {\'e}s fokok kapcsolata \cite  {windDirections}\relax }}{10}{figure.caption.10}}
\newlabel{fig:szeliranyok}{{6}{10}{Szélirányok: főirányok, mellékirányok és fokok kapcsolata \cite {windDirections}\relax }{figure.caption.10}{}}
\@writefile{lof}{\select@language{magyar} \contentsline {figure}{\numberline {7.}{\ignorespaces K\IeC {\"u}l\IeC {\"o}nf\IeC {\'e}le sz\IeC {\'e}lm\IeC {\'e}r\IeC {\H o} m\IeC {\H u}szerek (saj\IeC {\'a}t fot\IeC {\'o}k, publik\IeC {\'a}lva: \cite  {zivatarHu})\relax }}{10}{figure.caption.11}}
\newlabel{fig:szelmerok}{{7}{10}{Különféle szélmérő műszerek (saját fotók, publikálva: \cite {zivatarHu})\relax }{figure.caption.11}{}}
\citation{ELTEMuszer}
\citation{OMSZHagyomanyosModszerek}
\citation{metOfficeSynopChart}
\citation{metOfficeSynopChart}
\citation{ELTEMuszer}
\@writefile{lof}{\select@language{magyar} \contentsline {figure}{\numberline {8.}{\ignorespaces Szinoptikus t\IeC {\'e}rk\IeC {\'e}p \cite  {metOfficeSynopChart}\relax }}{11}{figure.caption.13}}
\newlabel{fig:szinopterkep}{{8}{11}{Szinoptikus térkép \cite {metOfficeSynopChart}\relax }{figure.caption.13}{}}
\citation{ELTEMuszer}
\citation{zivatarHu}
\citation{zivatarHu}
\citation{foldfelsziniEloiras}
\citation{foldfelsziniEloiras}
\citation{ELTEAlapismeretek}
\citation{foldfelsziniEloiras}
\citation{WMOClouds1}
\citation{WMOClouds2}
\citation{onlineCloudAtlas}
\@writefile{lof}{\select@language{magyar} \contentsline {figure}{\numberline {9.}{\ignorespaces Hagyom\IeC {\'a}nyos \IeC {\'e}s automata csapad\IeC {\'e}km\IeC {\'e}r\IeC {\H o} m\IeC {\H u}szer (saj\IeC {\'a}t fot\IeC {\'o}k, publik\IeC {\'a}lva: \cite  {zivatarHu})\relax }}{12}{figure.caption.15}}
\newlabel{fig:csapimero}{{9}{12}{Hagyományos és automata csapadékmérő műszer (saját fotók, publikálva: \cite {zivatarHu})\relax }{figure.caption.15}{}}
\citation{cloudChart}
\citation{cloudChart}
\citation{cloudTypes}
\citation{foldfelsziniEloiras}
\citation{foldfelsziniEloiras}
\citation{ELTEMuszer}
\citation{foldfelsziniEloiras}
\citation{foldfelsziniEloiras}
\@writefile{lof}{\select@language{magyar} \contentsline {figure}{\numberline {10.}{\ignorespaces Felh\IeC {\H o}fajt\IeC {\'a}k \IeC {\"o}sszefoglal\IeC {\'o} t\IeC {\'a}bl\IeC {\'a}zata \cite  {cloudChart}\relax }}{13}{figure.caption.19}}
\newlabel{fig:felhofajtak}{{10}{13}{Felhőfajták összefoglaló táblázata \cite {cloudChart}\relax }{figure.caption.19}{}}
\citation{foldfelsziniEloiras}
\citation{haloKosaKiss}
\citation{zivatarHu}
\citation{zivatarHu}
\citation{foldrengesFeny}
\citation{haloLegkor}
\citation{HAARP}
\citation{haloLegkor}
\citation{WMOGuideExtreme}
\citation{convectiveIndices}
\@writefile{lot}{\select@language{magyar} \contentsline {table}{\numberline {1.}{\ignorespaces A szinoptikus \IeC {\'e}gk\IeC {\'e}p-oszt\IeC {\'a}lyoz\IeC {\'a}s alapt\IeC {\'\i }pusai \cite  {foldfelsziniEloiras} alapj\IeC {\'a}n\relax }}{14}{table.caption.20}}
\newlabel{tab:cloudTypes}{{1}{14}{A szinoptikus égkép-osztályozás alaptípusai \cite {foldfelsziniEloiras} alapján\relax }{table.caption.20}{}}
\citation{ELTEAlapismeretek}
\citation{ELTEAlapismeretek}
\citation{Conrad}
\citation{muszerTeszt}
\citation{ws3600}
\citation{ws3600}
\citation{heavyWeather}
\citation{weatherDisplay}
\@writefile{lof}{\select@language{magyar} \contentsline {figure}{\numberline {11.}{\ignorespaces L\IeC {\'e}gk\IeC {\"o}roptikai jelens\IeC {\'e}gek (saj\IeC {\'a}t fot\IeC {\'o}k, publik\IeC {\'a}lva: \cite  {zivatarHu})\relax }}{15}{figure.caption.23}}
\newlabel{fig:legkoroptika}{{11}{15}{Légköroptikai jelenségek (saját fotók, publikálva: \cite {zivatarHu})\relax }{figure.caption.23}{}}
\@writefile{toc}{\select@language{magyar} \contentsline {subsubsection}{\numberline {2.1.4}\IeC {\'E}ghajlati jellemsz\IeC {\'a}mok}{15}{subsubsection.2.1.4}}
\@writefile{toc}{\select@language{magyar} \contentsline {subsubsection}{\numberline {2.1.5}Amat\IeC {\H o}r meteorol\IeC {\'o}gus m\IeC {\'e}r\IeC {\H o}m\IeC {\H u}szerek}{15}{subsubsection.2.1.5}}
\@writefile{lof}{\select@language{magyar} \contentsline {figure}{\numberline {12.}{\ignorespaces Leggyakoribb \IeC {\'e}ghajlati jellemsz\IeC {\'a}mok defin\IeC {\'\i }ci\IeC {\'o}ja \cite  {ELTEAlapismeretek}\relax }}{16}{figure.caption.24}}
\newlabel{fig:indices}{{12}{16}{Leggyakoribb éghajlati jellemszámok definíciója \cite {ELTEAlapismeretek}\relax }{figure.caption.24}{}}
\@writefile{lof}{\select@language{magyar} \contentsline {figure}{\numberline {13.}{\ignorespaces TechnoLine WS-2800 f\IeC {\H o}bb r\IeC {\'e}szegys\IeC {\'e}gei (saj\IeC {\'a}t felv\IeC {\'e}telek)\relax }}{16}{figure.caption.25}}
\newlabel{fig:ws-2800}{{13}{16}{TechnoLine WS-2800 főbb részegységei (saját felvételek)\relax }{figure.caption.25}{}}
\@setckpt{tex/elmelet-met}{
\setcounter{page}{17}
\setcounter{equation}{0}
\setcounter{enumi}{0}
\setcounter{enumii}{0}
\setcounter{enumiii}{0}
\setcounter{enumiv}{0}
\setcounter{footnote}{0}
\setcounter{mpfootnote}{0}
\setcounter{part}{0}
\setcounter{section}{2}
\setcounter{subsection}{1}
\setcounter{subsubsection}{5}
\setcounter{paragraph}{0}
\setcounter{subparagraph}{0}
\setcounter{figure}{13}
\setcounter{table}{1}
\setcounter{footnote@add}{0}
\setcounter{footnote@ch}{0}
\setcounter{lstnumber}{2}
\setcounter{ContinuedFloat}{0}
\setcounter{subfigure}{0}
\setcounter{subtable}{0}
\setcounter{Item}{0}
\setcounter{Hfootnote}{0}
\setcounter{bookmark@seq@number}{9}
\setcounter{lstlisting}{0}
\setcounter{section@level}{3}
}
