\relax 
\providecommand\hyper@newdestlabel[2]{}
\@writefile{toc}{\select@language{magyar} \contentsline {section}{\numberline {7}Felhaszn\IeC {\'a}l\IeC {\'o}i le\IeC {\'\i }r\IeC {\'a}s}{66}{section.7}}
\@writefile{toc}{\select@language{magyar} \contentsline {subsection}{\numberline {7.1}Rendszerk\IeC {\"o}vetelm\IeC {\'e}nyek}{66}{subsection.7.1}}
\@writefile{toc}{\select@language{magyar} \contentsline {subsection}{\numberline {7.2}Publikus fel\IeC {\"u}let}{66}{subsection.7.2}}
\@writefile{lof}{\select@language{magyar} \contentsline {figure}{\numberline {25.}{\ignorespaces A f\IeC {\H o}oldal mobiltelefonon megnyitva\relax }}{66}{figure.caption.73}}
\newlabel{fig:userMainPhone}{{25}{66}{A főoldal mobiltelefonon megnyitva\relax }{figure.caption.73}{}}
\@writefile{toc}{\select@language{magyar} \contentsline {subsubsection}{\numberline {7.2.1}\IeC {\'U}j felhaszn\IeC {\'a}l\IeC {\'o} regisztr\IeC {\'a}ci\IeC {\'o}ja}{66}{subsubsection.7.2.1}}
\@writefile{lof}{\select@language{magyar} \contentsline {figure}{\numberline {26.}{\ignorespaces Regisztr\IeC {\'a}ci\IeC {\'o}s \IeC {\H u}rlap\relax }}{67}{figure.caption.74}}
\newlabel{fig:userRegister}{{26}{67}{Regisztrációs űrlap\relax }{figure.caption.74}{}}
\@writefile{lof}{\select@language{magyar} \contentsline {figure}{\numberline {27.}{\ignorespaces Regisztr\IeC {\'a}ci\IeC {\'o} ut\IeC {\'a}n\relax }}{67}{figure.caption.75}}
\newlabel{fig:userOnRegister}{{27}{67}{Regisztráció után\relax }{figure.caption.75}{}}
\citation{gravatar}
\@writefile{toc}{\select@language{magyar} \contentsline {subsubsection}{\numberline {7.2.2}Jelsz\IeC {\'o}v\IeC {\'a}ltoztat\IeC {\'a}s}{68}{subsubsection.7.2.2}}
\@writefile{lof}{\select@language{magyar} \contentsline {figure}{\numberline {28.}{\ignorespaces Jelsz\IeC {\'o} megv\IeC {\'a}ltoztat\IeC {\'a}sa 1.\relax }}{68}{figure.caption.76}}
\newlabel{fig:userChangePw1}{{28}{68}{Jelszó megváltoztatása 1.\relax }{figure.caption.76}{}}
\@writefile{toc}{\select@language{magyar} \contentsline {subsubsection}{\numberline {7.2.3}Felhaszn\IeC {\'a}l\IeC {\'o} adatai}{68}{subsubsection.7.2.3}}
\@writefile{lof}{\select@language{magyar} \contentsline {figure}{\numberline {29.}{\ignorespaces Jelsz\IeC {\'o} megv\IeC {\'a}ltoztat\IeC {\'a}sa 2.\relax }}{69}{figure.caption.77}}
\newlabel{fig:userChangePw2}{{29}{69}{Jelszó megváltoztatása 2.\relax }{figure.caption.77}{}}
\@writefile{lof}{\select@language{magyar} \contentsline {figure}{\numberline {30.}{\ignorespaces Jelsz\IeC {\'o} megv\IeC {\'a}ltoztat\IeC {\'a}sa 3.\relax }}{69}{figure.caption.78}}
\newlabel{fig:userChangePw3}{{30}{69}{Jelszó megváltoztatása 3.\relax }{figure.caption.78}{}}
\@writefile{lof}{\select@language{magyar} \contentsline {figure}{\numberline {31.}{\ignorespaces Felhaszn\IeC {\'a}l\IeC {\'o} adatai\relax }}{70}{figure.caption.79}}
\newlabel{fig:userData}{{31}{70}{Felhasználó adatai\relax }{figure.caption.79}{}}
\@writefile{toc}{\select@language{magyar} \contentsline {subsubsection}{\numberline {7.2.4}M\IeC {\'e}r\IeC {\H o}helyek list\IeC {\'a}ja}{70}{subsubsection.7.2.4}}
\@writefile{lof}{\select@language{magyar} \contentsline {figure}{\numberline {32.}{\ignorespaces M\IeC {\'e}r\IeC {\H o}helyek list\IeC {\'a}ja\relax }}{70}{figure.caption.80}}
\newlabel{fig:siteList}{{32}{70}{Mérőhelyek listája\relax }{figure.caption.80}{}}
\@writefile{toc}{\select@language{magyar} \contentsline {subsubsection}{\numberline {7.2.5}M\IeC {\'e}r\IeC {\H o}helyek adatlapja}{71}{subsubsection.7.2.5}}
\@writefile{lof}{\select@language{magyar} \contentsline {figure}{\numberline {33.}{\ignorespaces M\IeC {\'e}r\IeC {\H o}helyek adatlapja\relax }}{71}{figure.caption.81}}
\newlabel{fig:siteDetails}{{33}{71}{Mérőhelyek adatlapja\relax }{figure.caption.81}{}}
\@writefile{toc}{\select@language{magyar} \contentsline {subsubsection}{\numberline {7.2.6}\IeC {\'E}szlel\IeC {\'e}sek}{71}{subsubsection.7.2.6}}
\@writefile{lof}{\select@language{magyar} \contentsline {figure}{\numberline {34.}{\ignorespaces \IeC {\'E}szlel\IeC {\'e}sek\relax }}{72}{figure.caption.82}}
\newlabel{fig:observations}{{34}{72}{Észlelések\relax }{figure.caption.82}{}}
\@writefile{toc}{\select@language{magyar} \contentsline {subsubsection}{\numberline {7.2.7}M\IeC {\'e}r\IeC {\H o}m\IeC {\H u}szerek}{72}{subsubsection.7.2.7}}
\@writefile{lof}{\select@language{magyar} \contentsline {figure}{\numberline {35.}{\ignorespaces M\IeC {\H u}szerek adatlapja\relax }}{72}{figure.caption.83}}
\newlabel{fig:instrumentDetails}{{35}{72}{Műszerek adatlapja\relax }{figure.caption.83}{}}
\@writefile{toc}{\select@language{magyar} \contentsline {subsubsection}{\numberline {7.2.8}\IeC {\'E}ghajlati adatok}{73}{subsubsection.7.2.8}}
\@writefile{toc}{\select@language{magyar} \contentsline {subsubsection}{\numberline {7.2.9}\IeC {\'E}szlel\IeC {\'e}si seg\IeC {\'e}dlet}{73}{subsubsection.7.2.9}}
\@writefile{toc}{\select@language{magyar} \contentsline {subsection}{\numberline {7.3}\IeC {\'E}szlel\IeC {\H o}i fel\IeC {\"u}let}{73}{subsection.7.3}}
\@writefile{toc}{\select@language{magyar} \contentsline {subsubsection}{\numberline {7.3.1}M\IeC {\'e}r\IeC {\H o}helyek l\IeC {\'e}trehoz\IeC {\'a}sa, karbantart\IeC {\'a}sa}{73}{subsubsection.7.3.1}}
\@writefile{toc}{\select@language{magyar} \contentsline {subsubsection}{\numberline {7.3.2}M\IeC {\'e}r\IeC {\H o}m\IeC {\H u}szerek karbantart\IeC {\'a}sa}{73}{subsubsection.7.3.2}}
\@writefile{lof}{\select@language{magyar} \contentsline {figure}{\numberline {36.}{\ignorespaces Havi \IeC {\'e}ghajlati adatlap\relax }}{74}{figure.caption.84}}
\newlabel{fig:monthly}{{36}{74}{Havi éghajlati adatlap\relax }{figure.caption.84}{}}
\@writefile{lof}{\select@language{magyar} \contentsline {figure}{\numberline {37.}{\ignorespaces \IeC {\'E}szlel\IeC {\'e}si seg\IeC {\'e}dlet\relax }}{75}{figure.caption.85}}
\newlabel{fig:ebook}{{37}{75}{Észlelési segédlet\relax }{figure.caption.85}{}}
\@writefile{lof}{\select@language{magyar} \contentsline {figure}{\numberline {38.}{\ignorespaces \IeC {\'U}j m\IeC {\'e}r\IeC {\H o}hely l\IeC {\'e}trehoz\IeC {\'a}sa\relax }}{75}{figure.caption.86}}
\newlabel{fig:createSite}{{38}{75}{Új mérőhely létrehozása\relax }{figure.caption.86}{}}
\@writefile{lof}{\select@language{magyar} \contentsline {figure}{\numberline {39.}{\ignorespaces K\IeC {\'e}p felt\IeC {\"o}lt\IeC {\'e}se m\IeC {\'e}r\IeC {\H o}\IeC {\'a}llom\IeC {\'a}shoz\relax }}{76}{figure.caption.87}}
\newlabel{fig:uploadImage}{{39}{76}{Kép feltöltése mérőállomáshoz\relax }{figure.caption.87}{}}
\@writefile{lof}{\select@language{magyar} \contentsline {figure}{\numberline {40.}{\ignorespaces K\IeC {\'e}p felt\IeC {\"o}lt\IeC {\'e}se m\IeC {\'e}r\IeC {\H o}\IeC {\'a}llom\IeC {\'a}shoz\relax }}{76}{figure.caption.88}}
\newlabel{fig:createInstrument}{{40}{76}{Kép feltöltése mérőállomáshoz\relax }{figure.caption.88}{}}
\@writefile{toc}{\select@language{magyar} \contentsline {subsubsection}{\numberline {7.3.3}\IeC {\'E}ghajlati napl\IeC {\'o} kit\IeC {\"o}lt\IeC {\'e}se}{77}{subsubsection.7.3.3}}
\@writefile{lof}{\select@language{magyar} \contentsline {figure}{\numberline {41.}{\ignorespaces \IeC {\'E}ghajlati napl\IeC {\'o}\relax }}{77}{figure.caption.89}}
\newlabel{fig:diary}{{41}{77}{Éghajlati napló\relax }{figure.caption.89}{}}
\@writefile{toc}{\select@language{magyar} \contentsline {subsubsection}{\numberline {7.3.4}Automata m\IeC {\H u}szer adatainak import\IeC {\'a}l\IeC {\'a}sa}{77}{subsubsection.7.3.4}}
\@writefile{lof}{\select@language{magyar} \contentsline {figure}{\numberline {42.}{\ignorespaces Adatf\IeC {\'a}jl oszlopainak megad\IeC {\'a}sa\relax }}{78}{figure.caption.90}}
\newlabel{fig:csv}{{42}{78}{Adatfájl oszlopainak megadása\relax }{figure.caption.90}{}}
\@writefile{toc}{\select@language{magyar} \contentsline {subsubsection}{\numberline {7.3.5}Vizu\IeC {\'a}lis \IeC {\'e}szlel\IeC {\'e}s}{78}{subsubsection.7.3.5}}
\@writefile{lof}{\select@language{magyar} \contentsline {figure}{\numberline {43.}{\ignorespaces Vizu\IeC {\'a}lis \IeC {\'e}szlel\IeC {\'e}s adatlapja\relax }}{79}{figure.caption.91}}
\newlabel{fig:observe}{{43}{79}{Vizuális észlelés adatlapja\relax }{figure.caption.91}{}}
\@writefile{toc}{\select@language{magyar} \contentsline {subsection}{\numberline {7.4}Adminisztr\IeC {\'a}tori fel\IeC {\"u}let}{79}{subsection.7.4}}
\@writefile{lof}{\select@language{magyar} \contentsline {figure}{\numberline {44.}{\ignorespaces Felhaszn\IeC {\'a}l\IeC {\'o} jogosults\IeC {\'a}gainak m\IeC {\'o}dos\IeC {\'\i }t\IeC {\'a}sa\relax }}{79}{figure.caption.92}}
\newlabel{fig:admin}{{44}{79}{Felhasználó jogosultságainak módosítása\relax }{figure.caption.92}{}}
\@setckpt{tex/felhasznaloi-leiras}{
\setcounter{page}{81}
\setcounter{equation}{0}
\setcounter{enumi}{3}
\setcounter{enumii}{0}
\setcounter{enumiii}{0}
\setcounter{enumiv}{0}
\setcounter{footnote}{0}
\setcounter{mpfootnote}{0}
\setcounter{part}{0}
\setcounter{section}{7}
\setcounter{subsection}{4}
\setcounter{subsubsection}{0}
\setcounter{paragraph}{0}
\setcounter{subparagraph}{0}
\setcounter{figure}{44}
\setcounter{table}{13}
\setcounter{footnote@add}{0}
\setcounter{footnote@ch}{0}
\setcounter{lstnumber}{6}
\setcounter{ContinuedFloat}{0}
\setcounter{subfigure}{0}
\setcounter{subtable}{0}
\setcounter{Item}{19}
\setcounter{Hfootnote}{0}
\setcounter{bookmark@seq@number}{69}
\setcounter{lstlisting}{0}
\setcounter{section@level}{2}
}
