\relax 
\providecommand\hyper@newdestlabel[2]{}
\bibcite{ELTEAlapismeretek}{1}
\bibcite{foldfelsziniEloiras}{2}
\bibcite{haloLegkor}{3}
\bibcite{fluxMonitoring}{4}
\bibcite{symfony2}{5}
\bibcite{metInfo}{6}
\bibcite{haloKosaKiss}{7}
\bibcite{urbanTemperature}{8}
\bibcite{responsiveDesign}{9}
\bibcite{hohullam}{10}
\bibcite{ELTEMuszer}{11}
\bibcite{ozone}{12}
\bibcite{cloudTypes}{13}
\bibcite{MorvaiK}{14}
\@writefile{toc}{\select@language{magyar} \contentsline {section}{\numberline {9}Hivatkoz\'asok}{85}{section.9}}
\bibcite{MAWOS}{15}
\bibcite{omszSynop}{16}
\bibcite{omszMetar}{17}
\bibcite{omsz140eves}{18}
\bibcite{metAdatbazisTortenete}{19}
\bibcite{restfulWebServices}{20}
\bibcite{foldrengesFeny}{21}
\bibcite{yii}{22}
\bibcite{websockets}{23}
\bibcite{WMOGuideObs}{24}
\bibcite{WMOGuideExtreme}{25}
\bibcite{WMOClouds1}{26}
\bibcite{WMOClouds2}{27}
\bibcite{egyedKapcsolat}{28}
\bibcite{ajax}{29}
\bibcite{glyphicons}{30}
\bibcite{pythonBug}{31}
\bibcite{djangoApache}{32}
\bibcite{Conrad}{33}
\bibcite{diginat2}{34}
\bibcite{diginat1}{35}
\bibcite{djangoChannels}{36}
\bibcite{pythonVersion}{37}
\bibcite{djangoGirlsDeploy}{38}
\bibcite{djangoModels}{39}
\bibcite{DjangoProject}{40}
\bibcite{djangoQuerySet}{41}
\bibcite{foundation}{42}
\bibcite{djangoTemplates}{43}
\bibcite{djangoViews}{44}
\bibcite{docker}{45}
\bibcite{bulk_create}{46}
\bibcite{MITx}{47}
\bibcite{pytestDocs}{48}
\bibcite{muszerTeszt}{49}
\bibcite{gravatar}{50}
\bibcite{heavyWeather}{51}
\bibcite{webAdatbazisJegyzet}{52}
\bibcite{hotFrameworks}{53}
\bibcite{spa}{54}
\bibcite{ogimetSynop}{55}
\bibcite{ogimetMetar}{56}
\bibcite{zivatarPythonAnywhere}{57}
\bibcite{zivatarHu}{58}
\bibcite{ws3600}{59}
\bibcite{netatmo}{60}
\bibcite{netatmoAPI}{61}
\bibcite{convectiveIndices}{62}
\bibcite{numPy}{63}
\bibcite{metOfficeSynopChart}{64}
\bibcite{ws2305hiba}{65}
\bibcite{OMSZHagyomanyosModszerek}{66}
\bibcite{pip}{67}
\bibcite{keretrendszer}{68}
\bibcite{pytest}{69}
\bibcite{pythonAnywhere}{70}
\bibcite{pythonDocs}{71}
\bibcite{raspberryPiAB}{72}
\bibcite{raspbian}{73}
\bibcite{udacity}{74}
\bibcite{pythonFw17}{75}
\bibcite{pythonGIS}{76}
\bibcite{pythonWiki}{77}
\bibcite{selenium}{78}
\bibcite{deepLearning}{79}
\bibcite{stack}{80}
\bibcite{sqlite}{81}
\bibcite{HAARP}{82}
\bibcite{pypy}{83}
\bibcite{pypySpeed}{84}
\bibcite{pythonFrameworks}{85}
\bibcite{weatherDisplay}{86}
\bibcite{wikiCaptcha}{87}
\bibcite{wiki}{88}
\bibcite{wikiDjango}{89}
\bibcite{singlepage}{90}
\bibcite{onlineCloudAtlas}{91}
\bibcite{windDirections}{92}
\bibcite{cloudChart}{93}
\bibcite{apache}{94}
\bibcite{mockup}{95}
\bibcite{datepicker}{96}
\bibcite{chartjs}{97}
\bibcite{chartjsExample}{98}
\bibcite{django}{99}
\bibcite{djangoRecaptcha}{100}
\bibcite{djangoREST}{101}
\bibcite{djangoWidget}{102}
\bibcite{duckdns}{103}
\bibcite{erdplus}{104}
\bibcite{github}{105}
\bibcite{gmail}{106}
\bibcite{googleRecaptcha}{107}
\bibcite{googleMaps}{108}
\bibcite{googleMapsApi}{109}
\bibcite{gunicorn}{110}
\bibcite{jquery}{111}
\bibcite{mysql}{112}
\bibcite{nginx}{113}
\bibcite{pycharm}{114}
\bibcite{papaParse}{115}
\bibcite{picklefield}{116}
\bibcite{pillow}{117}
\bibcite{python}{118}
\bibcite{sphinx}{119}
\bibcite{bootstrap}{120}
\@setckpt{tex/irodalom}{
\setcounter{page}{94}
\setcounter{equation}{0}
\setcounter{enumi}{3}
\setcounter{enumii}{0}
\setcounter{enumiii}{0}
\setcounter{enumiv}{120}
\setcounter{footnote}{0}
\setcounter{mpfootnote}{0}
\setcounter{part}{0}
\setcounter{section}{9}
\setcounter{subsection}{0}
\setcounter{subsubsection}{0}
\setcounter{paragraph}{0}
\setcounter{subparagraph}{0}
\setcounter{figure}{44}
\setcounter{table}{13}
\setcounter{footnote@add}{0}
\setcounter{footnote@ch}{0}
\setcounter{lstnumber}{6}
\setcounter{ContinuedFloat}{0}
\setcounter{subfigure}{0}
\setcounter{subtable}{0}
\setcounter{Item}{19}
\setcounter{Hfootnote}{0}
\setcounter{bookmark@seq@number}{74}
\setcounter{lstlisting}{0}
\setcounter{section@level}{1}
}
