\relax 
\providecommand\hyper@newdestlabel[2]{}
\citation{pycharm}
\citation{pythonAnywhere}
\citation{duckdns}
\@writefile{toc}{\select@language{magyar} \contentsline {section}{\numberline {4}Megval\IeC {\'o}s\IeC {\'\i }t\IeC {\'a}s}{44}{section.4}}
\@writefile{toc}{\select@language{magyar} \contentsline {subsection}{\numberline {4.1}A fejleszt\IeC {\H o}i k\IeC {\"o}rnyezet}{44}{subsection.4.1}}
\@writefile{toc}{\select@language{magyar} \contentsline {subsubsection}{\numberline {4.1.1}Django telep\IeC {\'\i }t\IeC {\'e}se a fejleszt\IeC {\H o}i sz\IeC {\'a}m\IeC {\'\i }t\IeC {\'o}g\IeC {\'e}pre}{44}{subsubsection.4.1.1}}
\citation{pythonDocs}
\citation{pytestDocs}
\citation{sphinx}
\@writefile{toc}{\select@language{magyar} \contentsline {subsubsection}{\numberline {4.1.2}Django projekt \IeC {\'e}s applik\IeC {\'a}ci\IeC {\'o} l\IeC {\'e}trehoz\IeC {\'a}sa}{45}{subsubsection.4.1.2}}
\@writefile{toc}{\select@language{magyar} \contentsline {subsubsection}{\numberline {4.1.3}Dokument\IeC {\'a}ci\IeC {\'o}}{45}{subsubsection.4.1.3}}
\@writefile{toc}{\select@language{magyar} \contentsline {subsection}{\numberline {4.2}A fejleszt\IeC {\'e}s}{46}{subsection.4.2}}
\@writefile{toc}{\select@language{magyar} \contentsline {subsubsection}{\numberline {4.2.1}Szerver oldal}{46}{subsubsection.4.2.1}}
\@writefile{toc}{\select@language{magyar} \contentsline {subsubsection}{\numberline {4.2.2}Kliens oldal}{47}{subsubsection.4.2.2}}
\citation{spa}
\citation{restfulWebServices}
\citation{jquery}
\citation{raspberryPiAB}
\citation{apache}
\citation{djangoApache}
\citation{nginx}
\citation{gunicorn}
\citation{docker}
\citation{sqlite}
\citation{mysql}
\citation{bulk_create}
\@writefile{toc}{\select@language{magyar} \contentsline {subsection}{\numberline {4.3}Nagyobb probl\IeC {\'e}m\IeC {\'a}k a fejleszt\IeC {\'e}s sor\IeC {\'a}n}{51}{subsection.4.3}}
\citation{ws2305hiba}
\citation{pythonBug}
\citation{pythonBug}
\citation{duckdns}
\citation{diginat1}
\citation{diginat2}
\citation{googleMapsApi}
\citation{apache}
\citation{djangoApache}
\citation{sqlite}
\citation{mysql}
\@writefile{toc}{\select@language{magyar} \contentsline {subsection}{\numberline {4.4}Telep\IeC {\'\i }t\IeC {\'e}s szerverre}{53}{subsection.4.4}}
\citation{gunicorn}
\citation{nginx}
\@setckpt{tex/megvalositas}{
\setcounter{page}{55}
\setcounter{equation}{0}
\setcounter{enumi}{11}
\setcounter{enumii}{0}
\setcounter{enumiii}{0}
\setcounter{enumiv}{0}
\setcounter{footnote}{0}
\setcounter{mpfootnote}{0}
\setcounter{part}{0}
\setcounter{section}{4}
\setcounter{subsection}{4}
\setcounter{subsubsection}{0}
\setcounter{paragraph}{0}
\setcounter{subparagraph}{0}
\setcounter{figure}{24}
\setcounter{table}{11}
\setcounter{footnote@add}{0}
\setcounter{footnote@ch}{0}
\setcounter{lstnumber}{1}
\setcounter{ContinuedFloat}{0}
\setcounter{subfigure}{0}
\setcounter{subtable}{0}
\setcounter{Item}{16}
\setcounter{Hfootnote}{0}
\setcounter{bookmark@seq@number}{28}
\setcounter{lstlisting}{0}
\setcounter{section@level}{2}
}
