\relax 
\providecommand\hyper@newdestlabel[2]{}
\@writefile{toc}{\select@language{magyar} \contentsline {section}{\numberline {3}Tervez\IeC {\'e}s \IeC {\'e}s el\IeC {\H o}k\IeC {\'e}sz\IeC {\'\i }t\IeC {\'e}s}{33}{section.3}}
\@writefile{toc}{\select@language{magyar} \contentsline {subsection}{\numberline {3.1}Funkcion\IeC {\'a}lis specifik\IeC {\'a}ci\IeC {\'o}, a felhaszn\IeC {\'a}l\IeC {\'o}i fel\IeC {\"u}let tervez\IeC {\'e}se}{33}{subsection.3.1}}
\@writefile{lof}{\select@language{magyar} \contentsline {figure}{\numberline {15.}{\ignorespaces Use case diagram, a tervezett funkcionalit\IeC {\'a}s\relax }}{33}{figure.caption.47}}
\newlabel{fig:users}{{15}{33}{Use case diagram, a tervezett funkcionalitás\relax }{figure.caption.47}{}}
\citation{responsiveDesign}
\citation{mockup}
\citation{wikiCaptcha}
\citation{googleMaps}
\@writefile{lof}{\select@language{magyar} \contentsline {figure}{\numberline {16.}{\ignorespaces F\IeC {\H o}oldal\relax }}{34}{figure.caption.48}}
\newlabel{fig:screenFooldal}{{16}{34}{Főoldal\relax }{figure.caption.48}{}}
\@writefile{lof}{\select@language{magyar} \contentsline {figure}{\numberline {17.}{\ignorespaces Regisztr\IeC {\'a}ci\IeC {\'o}\relax }}{34}{figure.caption.49}}
\newlabel{fig:screenRegisztracio}{{17}{34}{Regisztráció\relax }{figure.caption.49}{}}
\@writefile{lof}{\select@language{magyar} \contentsline {figure}{\numberline {18.}{\ignorespaces Saj\IeC {\'a}t m\IeC {\'e}r\IeC {\H o}helyek l\IeC {\'e}trehoz\IeC {\'a}sa \IeC {\'e}s be\IeC {\'a}ll\IeC {\'\i }t\IeC {\'a}sa\relax }}{35}{figure.caption.50}}
\newlabel{fig:screenOwnSite}{{18}{35}{Saját mérőhelyek létrehozása és beállítása\relax }{figure.caption.50}{}}
\@writefile{lof}{\select@language{magyar} \contentsline {figure}{\numberline {19.}{\ignorespaces Saj\IeC {\'a}t m\IeC {\'e}r\IeC {\H o}m\IeC {\H u}szerek l\IeC {\'e}trehoz\IeC {\'a}sa \IeC {\'e}s be\IeC {\'a}ll\IeC {\'\i }t\IeC {\'a}sa\relax }}{35}{figure.caption.51}}
\newlabel{fig:screenOwnInstrument}{{19}{35}{Saját mérőműszerek létrehozása és beállítása\relax }{figure.caption.51}{}}
\@writefile{lof}{\select@language{magyar} \contentsline {figure}{\numberline {20.}{\ignorespaces M\IeC {\'e}r\IeC {\H o}m\IeC {\H u}szerek \IeC {\'a}ltal m\IeC {\'e}rt nyers adatok felt\IeC {\"o}lt\IeC {\'e}se\relax }}{36}{figure.caption.52}}
\newlabel{fig:screenUpdateRawData}{{20}{36}{Mérőműszerek által mért nyers adatok feltöltése\relax }{figure.caption.52}{}}
\@writefile{lof}{\select@language{magyar} \contentsline {figure}{\numberline {21.}{\ignorespaces Emberi \IeC {\'e}szlel\IeC {\H o} \IeC {\'e}s hagyom\IeC {\'a}nyos anal\IeC {\'o}g m\IeC {\H u}szerek adatainak felt\IeC {\"o}lt\IeC {\'e}se\relax }}{37}{figure.caption.53}}
\newlabel{fig:screenUpdateDailyManualData}{{21}{37}{Emberi észlelő és hagyományos analóg műszerek adatainak feltöltése\relax }{figure.caption.53}{}}
\@writefile{lof}{\select@language{magyar} \contentsline {figure}{\numberline {22.}{\ignorespaces M\IeC {\'e}r\IeC {\H o}helyek adatlapja\relax }}{37}{figure.caption.54}}
\newlabel{fig:screenSite}{{22}{37}{Mérőhelyek adatlapja\relax }{figure.caption.54}{}}
\@writefile{lof}{\select@language{magyar} \contentsline {figure}{\numberline {23.}{\ignorespaces Havi vagy \IeC {\'e}ves \IeC {\'e}ghajlati \IeC {\"o}sszefoglal\IeC {\'o}\relax }}{38}{figure.caption.55}}
\newlabel{fig:screenReport}{{23}{38}{Havi vagy éves éghajlati összefoglaló\relax }{figure.caption.55}{}}
\@writefile{toc}{\select@language{magyar} \contentsline {subsection}{\numberline {3.2}Az adatmodell, az adatb\IeC {\'a}zis}{38}{subsection.3.2}}
\citation{ws3600}
\@writefile{lot}{\select@language{magyar} \contentsline {table}{\numberline {4.}{\ignorespaces Adatmodell: Site (m\IeC {\'e}r\IeC {\H o}hely) tulajdons\IeC {\'a}gai\relax }}{39}{table.caption.56}}
\newlabel{tab:siteModel}{{4}{39}{Adatmodell: Site (mérőhely) tulajdonságai\relax }{table.caption.56}{}}
\@writefile{lot}{\select@language{magyar} \contentsline {table}{\numberline {5.}{\ignorespaces Adatmodell: Instrument (m\IeC {\'e}r\IeC {\H o}m\IeC {\H u}szer) tulajdons\IeC {\'a}gai\relax }}{39}{table.caption.57}}
\newlabel{tab:instrumentModel}{{5}{39}{Adatmodell: Instrument (mérőműszer) tulajdonságai\relax }{table.caption.57}{}}
\@writefile{lot}{\select@language{magyar} \contentsline {table}{\numberline {6.}{\ignorespaces Adatmodell: Profile (felhaszn\IeC {\'a}l\IeC {\'o}profil) tulajdons\IeC {\'a}gai\relax }}{40}{table.caption.58}}
\newlabel{tab:profileModel}{{6}{40}{Adatmodell: Profile (felhasználóprofil) tulajdonságai\relax }{table.caption.58}{}}
\@writefile{lot}{\select@language{magyar} \contentsline {table}{\numberline {7.}{\ignorespaces Adatmodell: RawData (nyers m\IeC {\'e}rt adat) tulajdons\IeC {\'a}gai\relax }}{40}{table.caption.59}}
\newlabel{tab:rawDataModel}{{7}{40}{Adatmodell: RawData (nyers mért adat) tulajdonságai\relax }{table.caption.59}{}}
\@writefile{lot}{\select@language{magyar} \contentsline {table}{\numberline {8.}{\ignorespaces Adatmodell: RawObservation (vizu\IeC {\'a}lis \IeC {\'e}szlel\IeC {\'e}s) tulajdons\IeC {\'a}gai\relax }}{40}{table.caption.60}}
\newlabel{tab:rawObservationModel}{{8}{40}{Adatmodell: RawObservation (vizuális észlelés) tulajdonságai\relax }{table.caption.60}{}}
\citation{erdplus}
\@writefile{lot}{\select@language{magyar} \contentsline {table}{\numberline {9.}{\ignorespaces Adatmodell: RawManualData (\IeC {\'e}ghajlati napl\IeC {\'o} bejegyz\IeC {\'e}se) tulajdons\IeC {\'a}gai\relax }}{41}{table.caption.61}}
\newlabel{tab:rawManualDataModel}{{9}{41}{Adatmodell: RawManualData (éghajlati napló bejegyzése) tulajdonságai\relax }{table.caption.61}{}}
\@writefile{lot}{\select@language{magyar} \contentsline {table}{\numberline {10.}{\ignorespaces Adatmodell: DailyStatistics (napi \IeC {\"o}sszes\IeC {\'\i }t\IeC {\'e}s) tulajdons\IeC {\'a}gai\relax }}{42}{table.caption.62}}
\newlabel{tab:dailyStatisticsModel}{{10}{42}{Adatmodell: DailyStatistics (napi összesítés) tulajdonságai\relax }{table.caption.62}{}}
\@writefile{lot}{\select@language{magyar} \contentsline {table}{\numberline {11.}{\ignorespaces Adatmodell: MonthlyStatistics \IeC {\'e}s YearlyStatistics tulajdons\IeC {\'a}gai, a DailyStatistics tulajdons\IeC {\'a}gain k\IeC {\'\i }v\IeC {\"u}l\relax }}{42}{table.caption.63}}
\newlabel{tab:monthlyStatisticsModel}{{11}{42}{Adatmodell: MonthlyStatistics és YearlyStatistics tulajdonságai, a DailyStatistics tulajdonságain kívül\relax }{table.caption.63}{}}
\@writefile{lof}{\select@language{magyar} \contentsline {figure}{\numberline {24.}{\ignorespaces A tervezett adatt\IeC {\'a}bl\IeC {\'a}k\relax }}{43}{figure.caption.64}}
\newlabel{fig:egyedKapcsolat}{{24}{43}{A tervezett adattáblák\relax }{figure.caption.64}{}}
\@setckpt{tex/tervezes}{
\setcounter{page}{44}
\setcounter{equation}{0}
\setcounter{enumi}{11}
\setcounter{enumii}{0}
\setcounter{enumiii}{0}
\setcounter{enumiv}{0}
\setcounter{footnote}{0}
\setcounter{mpfootnote}{0}
\setcounter{part}{0}
\setcounter{section}{3}
\setcounter{subsection}{2}
\setcounter{subsubsection}{0}
\setcounter{paragraph}{0}
\setcounter{subparagraph}{0}
\setcounter{figure}{24}
\setcounter{table}{11}
\setcounter{footnote@add}{0}
\setcounter{footnote@ch}{0}
\setcounter{lstnumber}{16}
\setcounter{ContinuedFloat}{0}
\setcounter{subfigure}{0}
\setcounter{subtable}{0}
\setcounter{Item}{16}
\setcounter{Hfootnote}{0}
\setcounter{bookmark@seq@number}{18}
\setcounter{lstlisting}{0}
\setcounter{section@level}{2}
}
