\relax 
\providecommand\hyper@newdestlabel[2]{}
\@writefile{toc}{\select@language{magyar} \contentsline {section}{\numberline {5}Tesztel\IeC {\'e}s}{55}{section.5}}
\@writefile{toc}{\select@language{magyar} \contentsline {subsection}{\numberline {5.1}Hozz\IeC {\'a}f\IeC {\'e}r\IeC {\'e}si adatok}{55}{subsection.5.1}}
\@writefile{lot}{\select@language{magyar} \contentsline {table}{\numberline {12.}{\ignorespaces Teszt felhaszn\IeC {\'a}l\IeC {\'o}k hozz\IeC {\'a}f\IeC {\'e}r\IeC {\'e}si adatai\relax }}{55}{table.caption.71}}
\newlabel{tab:tesztUsers}{{12}{55}{Teszt felhasználók hozzáférési adatai\relax }{table.caption.71}{}}
\@writefile{toc}{\select@language{magyar} \contentsline {subsection}{\numberline {5.2}Alapvet\IeC {\H o} m\IeC {\H u}k\IeC {\"o}d\IeC {\'e}s}{55}{subsection.5.2}}
\@writefile{toc}{\select@language{magyar} \contentsline {subsection}{\numberline {5.3}Autentik\IeC {\'a}ci\IeC {\'o}}{56}{subsection.5.3}}
\@writefile{lot}{\select@language{magyar} \contentsline {table}{\numberline {13.}{\ignorespaces Autentik\IeC {\'a}ci\IeC {\'o} tesztel\IeC {\'e}si l\IeC {\'e}p\IeC {\'e}sei \IeC {\"o}sszefoglalva\relax }}{56}{table.caption.72}}
\newlabel{tab:tesztAuth}{{13}{56}{Autentikáció tesztelési lépései összefoglalva\relax }{table.caption.72}{}}
\@writefile{toc}{\select@language{magyar} \contentsline {subsection}{\numberline {5.4}Regisztr\IeC {\'a}ci\IeC {\'o}}{56}{subsection.5.4}}
\@writefile{toc}{\select@language{magyar} \contentsline {subsubsection}{\numberline {5.4.1}Bel\IeC {\'e}p\IeC {\'e}s, kil\IeC {\'e}p\IeC {\'e}s}{57}{subsubsection.5.4.1}}
\@writefile{toc}{\select@language{magyar} \contentsline {subsection}{\numberline {5.5}Publikus/saj\IeC {\'a}t m\IeC {\'e}r\IeC {\H o}helyek list\IeC {\'a}ja}{58}{subsection.5.5}}
\@writefile{toc}{\select@language{magyar} \contentsline {subsection}{\numberline {5.6}Publikus/saj\IeC {\'a}t m\IeC {\'e}r\IeC {\H o}hely adatlapja}{58}{subsection.5.6}}
\@writefile{toc}{\select@language{magyar} \contentsline {subsection}{\numberline {5.7}\IeC {\'E}ghajlati adatok megjelen\IeC {\'\i }t\IeC {\'e}se}{59}{subsection.5.7}}
\@writefile{toc}{\select@language{magyar} \contentsline {subsection}{\numberline {5.8}\IeC {\'E}ghajlati napl\IeC {\'o} kit\IeC {\"o}lt\IeC {\'e}se}{59}{subsection.5.8}}
\@writefile{toc}{\select@language{magyar} \contentsline {subsection}{\numberline {5.9}M\IeC {\'e}rt adatok felt\IeC {\"o}lt\IeC {\'e}se}{60}{subsection.5.9}}
\@writefile{toc}{\select@language{magyar} \contentsline {subsection}{\numberline {5.10}Aktu\IeC {\'a}lis id\IeC {\H o}j\IeC {\'a}r\IeC {\'a}s \IeC {\'e}szlel\IeC {\'e}se}{60}{subsection.5.10}}
\@writefile{toc}{\select@language{magyar} \contentsline {subsection}{\numberline {5.11}\IeC {\'U}j m\IeC {\'e}r\IeC {\H o}hely l\IeC {\'e}trehoz\IeC {\'a}sa}{60}{subsection.5.11}}
\@writefile{toc}{\select@language{magyar} \contentsline {subsection}{\numberline {5.12}L\IeC {\'e}tez\IeC {\H o} m\IeC {\'e}r\IeC {\H o}hely szerkeszt\IeC {\'e}se}{61}{subsection.5.12}}
\@writefile{toc}{\select@language{magyar} \contentsline {subsection}{\numberline {5.13}\IeC {\'U}j m\IeC {\'e}r\IeC {\H o}m\IeC {\H u}szer hozz\IeC {\'a}ad\IeC {\'a}sa}{61}{subsection.5.13}}
\@writefile{toc}{\select@language{magyar} \contentsline {subsection}{\numberline {5.14}Admin fel\IeC {\"u}let}{62}{subsection.5.14}}
\@setckpt{tex/teszteles}{
\setcounter{page}{63}
\setcounter{equation}{0}
\setcounter{enumi}{11}
\setcounter{enumii}{0}
\setcounter{enumiii}{0}
\setcounter{enumiv}{0}
\setcounter{footnote}{0}
\setcounter{mpfootnote}{0}
\setcounter{part}{0}
\setcounter{section}{5}
\setcounter{subsection}{14}
\setcounter{subsubsection}{0}
\setcounter{paragraph}{0}
\setcounter{subparagraph}{0}
\setcounter{figure}{24}
\setcounter{table}{13}
\setcounter{footnote@add}{0}
\setcounter{footnote@ch}{0}
\setcounter{lstnumber}{1}
\setcounter{ContinuedFloat}{0}
\setcounter{subfigure}{0}
\setcounter{subtable}{0}
\setcounter{Item}{16}
\setcounter{Hfootnote}{0}
\setcounter{bookmark@seq@number}{44}
\setcounter{lstlisting}{0}
\setcounter{section@level}{2}
}
