\relax 
\providecommand\hyper@newdestlabel[2]{}
\citation{pip}
\citation{gmail}
\citation{googleRecaptcha}
\citation{raspberryPiAB}
\citation{raspbian}
\citation{djangoApache}
\@writefile{toc}{\select@language{magyar} \contentsline {section}{\numberline {6}\IeC {\"U}zemeltet\IeC {\H o}i le\IeC {\'\i }r\IeC {\'a}s}{63}{section.6}}
\@writefile{toc}{\select@language{magyar} \contentsline {subsection}{\numberline {6.1}A webapp telep\IeC {\'\i }t\IeC {\'e}shez sz\IeC {\"u}ks\IeC {\'e}ges k\IeC {\"o}rnyezet}{63}{subsection.6.1}}
\@writefile{toc}{\select@language{magyar} \contentsline {subsection}{\numberline {6.2}A Django \IeC {\'e}s dependenci\IeC {\'a}inak telep\IeC {\'\i }t\IeC {\'e}se}{63}{subsection.6.2}}
\@writefile{toc}{\select@language{magyar} \contentsline {subsection}{\numberline {6.3}A Django konfigur\IeC {\'a}l\IeC {\'a}sa}{64}{subsection.6.3}}
\@writefile{toc}{\select@language{magyar} \contentsline {subsection}{\numberline {6.4}Apache konfigur\IeC {\'a}l\IeC {\'a}sa}{64}{subsection.6.4}}
\@writefile{toc}{\select@language{magyar} \contentsline {subsection}{\numberline {6.5}Verzi\IeC {\'o}friss\IeC {\'\i }t\IeC {\'e}sek}{65}{subsection.6.5}}
\@setckpt{tex/uzemeltetoi-leiras}{
\setcounter{page}{66}
\setcounter{equation}{0}
\setcounter{enumi}{11}
\setcounter{enumii}{0}
\setcounter{enumiii}{0}
\setcounter{enumiv}{0}
\setcounter{footnote}{0}
\setcounter{mpfootnote}{0}
\setcounter{part}{0}
\setcounter{section}{6}
\setcounter{subsection}{5}
\setcounter{subsubsection}{0}
\setcounter{paragraph}{0}
\setcounter{subparagraph}{0}
\setcounter{figure}{24}
\setcounter{table}{13}
\setcounter{footnote@add}{0}
\setcounter{footnote@ch}{0}
\setcounter{lstnumber}{6}
\setcounter{ContinuedFloat}{0}
\setcounter{subfigure}{0}
\setcounter{subtable}{0}
\setcounter{Item}{16}
\setcounter{Hfootnote}{0}
\setcounter{bookmark@seq@number}{50}
\setcounter{lstlisting}{0}
\setcounter{section@level}{2}
}
