\select@language {magyar} \contentsline {figure}{\numberline {1.}{\ignorespaces OMSZ meteorol\IeC {\'o}giai \IeC {\'e}szlel\IeC {\H o}fel\IeC {\"u}let fejl\IeC {\H o}d\IeC {\'e}se, \cite {metAdatbazisTortenete} alapj\IeC {\'a}n\relax }}{5}{figure.caption.2}
\select@language {magyar} \contentsline {figure}{\numberline {2.}{\ignorespaces Egy rep\IeC {\"u}l\IeC {\H o}t\IeC {\'e}ri m\IeC {\H u}szerkert elvi fel\IeC {\'e}p\IeC {\'\i }t\IeC {\'e}se \cite {MAWOS}\relax }}{6}{figure.caption.3}
\select@language {magyar} \contentsline {figure}{\numberline {3.}{\ignorespaces P\IeC {\'e}lda v\IeC {\'a}rosi m\IeC {\'e}r\IeC {\H o}h\IeC {\'a}l\IeC {\'o}zatra (saj\IeC {\'a}t \IeC {\'a}bra, publik\IeC {\'a}lva: \cite {urbanTemperature})\relax }}{6}{figure.caption.4}
\select@language {magyar} \contentsline {figure}{\numberline {4.}{\ignorespaces Hagyom\IeC {\'a}nyos Stevenson-f\IeC {\'e}le h\IeC {\H o}m\IeC {\'e}r\IeC {\H o}h\IeC {\'a}z \IeC {\'e}s t\IeC {\'a}ny\IeC {\'e}ros \IeC {\'a}rny\IeC {\'e}kol\IeC {\'o} (saj\IeC {\'a}t fot\IeC {\'o}k, publik\IeC {\'a}lva: \cite {zivatarHu})\relax }}{8}{figure.caption.6}
\select@language {magyar} \contentsline {figure}{\numberline {5.}{\ignorespaces Vaisala r\IeC {\'a}di\IeC {\'o}szonda, antenna \IeC {\'e}s szenzor (saj\IeC {\'a}t fot\IeC {\'o}k, publik\IeC {\'a}lva: \cite {zivatarHu})\relax }}{9}{figure.caption.7}
\select@language {magyar} \contentsline {figure}{\numberline {6.}{\ignorespaces Sz\IeC {\'e}lir\IeC {\'a}nyok: f\IeC {\H o}ir\IeC {\'a}nyok, mell\IeC {\'e}kir\IeC {\'a}nyok \IeC {\'e}s fokok kapcsolata \cite {windDirections}\relax }}{10}{figure.caption.10}
\select@language {magyar} \contentsline {figure}{\numberline {7.}{\ignorespaces K\IeC {\"u}l\IeC {\"o}nf\IeC {\'e}le sz\IeC {\'e}lm\IeC {\'e}r\IeC {\H o} m\IeC {\H u}szerek (saj\IeC {\'a}t fot\IeC {\'o}k, publik\IeC {\'a}lva: \cite {zivatarHu})\relax }}{10}{figure.caption.11}
\select@language {magyar} \contentsline {figure}{\numberline {8.}{\ignorespaces Szinoptikus t\IeC {\'e}rk\IeC {\'e}p \cite {metOfficeSynopChart}\relax }}{11}{figure.caption.13}
\select@language {magyar} \contentsline {figure}{\numberline {9.}{\ignorespaces Hagyom\IeC {\'a}nyos \IeC {\'e}s automata csapad\IeC {\'e}km\IeC {\'e}r\IeC {\H o} m\IeC {\H u}szer (saj\IeC {\'a}t fot\IeC {\'o}k, publik\IeC {\'a}lva: \cite {zivatarHu})\relax }}{12}{figure.caption.15}
\select@language {magyar} \contentsline {figure}{\numberline {10.}{\ignorespaces Felh\IeC {\H o}fajt\IeC {\'a}k \IeC {\"o}sszefoglal\IeC {\'o} t\IeC {\'a}bl\IeC {\'a}zata \cite {cloudChart}\relax }}{13}{figure.caption.19}
\select@language {magyar} \contentsline {figure}{\numberline {11.}{\ignorespaces L\IeC {\'e}gk\IeC {\"o}roptikai jelens\IeC {\'e}gek (saj\IeC {\'a}t fot\IeC {\'o}k, publik\IeC {\'a}lva: \cite {zivatarHu})\relax }}{15}{figure.caption.23}
\select@language {magyar} \contentsline {figure}{\numberline {12.}{\ignorespaces Leggyakoribb \IeC {\'e}ghajlati jellemsz\IeC {\'a}mok defin\IeC {\'\i }ci\IeC {\'o}ja \cite {ELTEAlapismeretek}\relax }}{16}{figure.caption.24}
\select@language {magyar} \contentsline {figure}{\numberline {13.}{\ignorespaces TechnoLine WS-2800 f\IeC {\H o}bb r\IeC {\'e}szegys\IeC {\'e}gei (saj\IeC {\'a}t felv\IeC {\'e}telek)\relax }}{16}{figure.caption.25}
\select@language {magyar} \contentsline {figure}{\numberline {14.}{\ignorespaces Django default k\IeC {\"o}nyvt\IeC {\'a}rszerkezet\relax }}{20}{figure.caption.30}
\select@language {magyar} \contentsline {figure}{\numberline {15.}{\ignorespaces Use case diagram, a tervezett funkcionalit\IeC {\'a}s\relax }}{33}{figure.caption.47}
\select@language {magyar} \contentsline {figure}{\numberline {16.}{\ignorespaces F\IeC {\H o}oldal\relax }}{34}{figure.caption.48}
\select@language {magyar} \contentsline {figure}{\numberline {17.}{\ignorespaces Regisztr\IeC {\'a}ci\IeC {\'o}\relax }}{34}{figure.caption.49}
\select@language {magyar} \contentsline {figure}{\numberline {18.}{\ignorespaces Saj\IeC {\'a}t m\IeC {\'e}r\IeC {\H o}helyek l\IeC {\'e}trehoz\IeC {\'a}sa \IeC {\'e}s be\IeC {\'a}ll\IeC {\'\i }t\IeC {\'a}sa\relax }}{35}{figure.caption.50}
\select@language {magyar} \contentsline {figure}{\numberline {19.}{\ignorespaces Saj\IeC {\'a}t m\IeC {\'e}r\IeC {\H o}m\IeC {\H u}szerek l\IeC {\'e}trehoz\IeC {\'a}sa \IeC {\'e}s be\IeC {\'a}ll\IeC {\'\i }t\IeC {\'a}sa\relax }}{35}{figure.caption.51}
\select@language {magyar} \contentsline {figure}{\numberline {20.}{\ignorespaces M\IeC {\'e}r\IeC {\H o}m\IeC {\H u}szerek \IeC {\'a}ltal m\IeC {\'e}rt nyers adatok felt\IeC {\"o}lt\IeC {\'e}se\relax }}{36}{figure.caption.52}
\select@language {magyar} \contentsline {figure}{\numberline {21.}{\ignorespaces Emberi \IeC {\'e}szlel\IeC {\H o} \IeC {\'e}s hagyom\IeC {\'a}nyos anal\IeC {\'o}g m\IeC {\H u}szerek adatainak felt\IeC {\"o}lt\IeC {\'e}se\relax }}{37}{figure.caption.53}
\select@language {magyar} \contentsline {figure}{\numberline {22.}{\ignorespaces M\IeC {\'e}r\IeC {\H o}helyek adatlapja\relax }}{37}{figure.caption.54}
\select@language {magyar} \contentsline {figure}{\numberline {23.}{\ignorespaces Havi vagy \IeC {\'e}ves \IeC {\'e}ghajlati \IeC {\"o}sszefoglal\IeC {\'o}\relax }}{38}{figure.caption.55}
\select@language {magyar} \contentsline {figure}{\numberline {24.}{\ignorespaces A tervezett adatt\IeC {\'a}bl\IeC {\'a}k\relax }}{43}{figure.caption.64}
\select@language {magyar} \contentsline {figure}{\numberline {25.}{\ignorespaces A f\IeC {\H o}oldal mobiltelefonon megnyitva\relax }}{66}{figure.caption.73}
\select@language {magyar} \contentsline {figure}{\numberline {26.}{\ignorespaces Regisztr\IeC {\'a}ci\IeC {\'o}s \IeC {\H u}rlap\relax }}{67}{figure.caption.74}
\select@language {magyar} \contentsline {figure}{\numberline {27.}{\ignorespaces Regisztr\IeC {\'a}ci\IeC {\'o} ut\IeC {\'a}n\relax }}{67}{figure.caption.75}
\select@language {magyar} \contentsline {figure}{\numberline {28.}{\ignorespaces Jelsz\IeC {\'o} megv\IeC {\'a}ltoztat\IeC {\'a}sa 1.\relax }}{68}{figure.caption.76}
\select@language {magyar} \contentsline {figure}{\numberline {29.}{\ignorespaces Jelsz\IeC {\'o} megv\IeC {\'a}ltoztat\IeC {\'a}sa 2.\relax }}{69}{figure.caption.77}
\select@language {magyar} \contentsline {figure}{\numberline {30.}{\ignorespaces Jelsz\IeC {\'o} megv\IeC {\'a}ltoztat\IeC {\'a}sa 3.\relax }}{69}{figure.caption.78}
\select@language {magyar} \contentsline {figure}{\numberline {31.}{\ignorespaces Felhaszn\IeC {\'a}l\IeC {\'o} adatai\relax }}{70}{figure.caption.79}
\select@language {magyar} \contentsline {figure}{\numberline {32.}{\ignorespaces M\IeC {\'e}r\IeC {\H o}helyek list\IeC {\'a}ja\relax }}{70}{figure.caption.80}
\select@language {magyar} \contentsline {figure}{\numberline {33.}{\ignorespaces M\IeC {\'e}r\IeC {\H o}helyek adatlapja\relax }}{71}{figure.caption.81}
\select@language {magyar} \contentsline {figure}{\numberline {34.}{\ignorespaces \IeC {\'E}szlel\IeC {\'e}sek\relax }}{72}{figure.caption.82}
\select@language {magyar} \contentsline {figure}{\numberline {35.}{\ignorespaces M\IeC {\H u}szerek adatlapja\relax }}{72}{figure.caption.83}
\select@language {magyar} \contentsline {figure}{\numberline {36.}{\ignorespaces Havi \IeC {\'e}ghajlati adatlap\relax }}{74}{figure.caption.84}
\select@language {magyar} \contentsline {figure}{\numberline {37.}{\ignorespaces \IeC {\'E}szlel\IeC {\'e}si seg\IeC {\'e}dlet\relax }}{75}{figure.caption.85}
\select@language {magyar} \contentsline {figure}{\numberline {38.}{\ignorespaces \IeC {\'U}j m\IeC {\'e}r\IeC {\H o}hely l\IeC {\'e}trehoz\IeC {\'a}sa\relax }}{75}{figure.caption.86}
\select@language {magyar} \contentsline {figure}{\numberline {39.}{\ignorespaces K\IeC {\'e}p felt\IeC {\"o}lt\IeC {\'e}se m\IeC {\'e}r\IeC {\H o}\IeC {\'a}llom\IeC {\'a}shoz\relax }}{76}{figure.caption.87}
\select@language {magyar} \contentsline {figure}{\numberline {40.}{\ignorespaces K\IeC {\'e}p felt\IeC {\"o}lt\IeC {\'e}se m\IeC {\'e}r\IeC {\H o}\IeC {\'a}llom\IeC {\'a}shoz\relax }}{76}{figure.caption.88}
\select@language {magyar} \contentsline {figure}{\numberline {41.}{\ignorespaces \IeC {\'E}ghajlati napl\IeC {\'o}\relax }}{77}{figure.caption.89}
\select@language {magyar} \contentsline {figure}{\numberline {42.}{\ignorespaces Adatf\IeC {\'a}jl oszlopainak megad\IeC {\'a}sa\relax }}{78}{figure.caption.90}
\select@language {magyar} \contentsline {figure}{\numberline {43.}{\ignorespaces Vizu\IeC {\'a}lis \IeC {\'e}szlel\IeC {\'e}s adatlapja\relax }}{79}{figure.caption.91}
\select@language {magyar} \contentsline {figure}{\numberline {44.}{\ignorespaces Felhaszn\IeC {\'a}l\IeC {\'o} jogosults\IeC {\'a}gainak m\IeC {\'o}dos\IeC {\'\i }t\IeC {\'a}sa\relax }}{79}{figure.caption.92}
