\relax 
\providecommand\hyper@newdestlabel[2]{}
\catcode \string ``=12
\providecommand\HyperFirstAtBeginDocument{\AtBeginDocument}
\HyperFirstAtBeginDocument{\ifx\hyper@anchor\@undefined
\global\let\oldcontentsline\contentsline
\gdef\contentsline#1#2#3#4{\oldcontentsline{#1}{#2}{#3}}
\global\let\oldnewlabel\newlabel
\gdef\newlabel#1#2{\newlabelxx{#1}#2}
\gdef\newlabelxx#1#2#3#4#5#6{\oldnewlabel{#1}{{#2}{#3}}}
\AtEndDocument{\ifx\hyper@anchor\@undefined
\let\contentsline\oldcontentsline
\let\newlabel\oldnewlabel
\fi}
\fi}
\global\let\hyper@last\relax 
\gdef\HyperFirstAtBeginDocument#1{#1}
\providecommand\HyField@AuxAddToFields[1]{}
\providecommand\HyField@AuxAddToCoFields[2]{}
\@input{tex/fedolap.aux}
\@input{tex/bevezetes.aux}
\@input{tex/elmelet-met.aux}
\@input{tex/elmelet-sw.aux}
\@input{tex/tervezes.aux}
\@input{tex/megvalositas.aux}
\@input{tex/teszteles.aux}
\@input{tex/uzemeltetoi-leiras.aux}
\@input{tex/felhasznaloi-leiras.aux}
\@input{tex/tovabbfejlesztes.aux}
\citation{metAdatbazisTortenete}
\citation{MAWOS}
\citation{urbanTemperature}
\citation{zivatarHu}
\citation{zivatarHu}
\citation{windDirections}
\citation{zivatarHu}
\citation{metOfficeSynopChart}
\citation{zivatarHu}
\citation{cloudChart}
\citation{zivatarHu}
\citation{ELTEAlapismeretek}
\@writefile{toc}{\select@language{magyar} \contentsline {section}{\'Abr\'ak jegyz\'eke}{83}{section*.93}}
\citation{foldfelsziniEloiras}
\citation{hotFrameworks}
\citation{pythonVersion}
\@writefile{toc}{\select@language{magyar} \contentsline {section}{T\'abl\'azatok jegyz\'eke}{84}{section*.94}}
\@input{tex/irodalom.aux}
